{
    "properties": [
        {
            "modifiers": [], 
            "name": "accountTriggerEnabled", 
            "visibility": "PUBLIC", 
            "references": [], 
            "location": {
                "column": 20, 
                "line": 11
            }, 
            "type": "Boolean"
        }, 
        {
            "modifiers": [], 
            "name": "contactTriggerEnabled", 
            "visibility": "PUBLIC", 
            "references": [], 
            "location": {
                "column": 20, 
                "line": 12
            }, 
            "type": "Boolean"
        }, 
        {
            "modifiers": [], 
            "name": "leadTriggerEnabled", 
            "visibility": "PUBLIC", 
            "references": [], 
            "location": {
                "column": 20, 
                "line": 13
            }, 
            "type": "Boolean"
        }, 
        {
            "modifiers": [], 
            "name": "leadAutomationEnabled", 
            "visibility": "PUBLIC", 
            "references": [], 
            "location": {
                "column": 20, 
                "line": 14
            }, 
            "type": "Boolean"
        }, 
        {
            "modifiers": [], 
            "name": "contactAutomationEnabled", 
            "visibility": "PUBLIC", 
            "references": [], 
            "location": {
                "column": 20, 
                "line": 15
            }, 
            "type": "Boolean"
        }, 
        {
            "modifiers": [], 
            "name": "accountAutomationEnabled", 
            "visibility": "PUBLIC", 
            "references": [], 
            "location": {
                "column": 20, 
                "line": 16
            }, 
            "type": "Boolean"
        }, 
        {
            "modifiers": [], 
            "name": "isDefault", 
            "visibility": "PUBLIC", 
            "references": [], 
            "location": {
                "column": 20, 
                "line": 17
            }, 
            "type": "Boolean"
        }, 
        {
            "modifiers": [], 
            "name": "domainMatchEnabled", 
            "visibility": "PUBLIC", 
            "references": [], 
            "location": {
                "column": 20, 
                "line": 18
            }, 
            "type": "Boolean"
        }, 
        {
            "modifiers": [], 
            "name": "dunsLookupEnabled", 
            "visibility": "PUBLIC", 
            "references": [], 
            "location": {
                "column": 20, 
                "line": 19
            }, 
            "type": "Boolean"
        }, 
        {
            "modifiers": [], 
            "name": "duplicateIdentificationEnabled", 
            "visibility": "PUBLIC", 
            "references": [], 
            "location": {
                "column": 20, 
                "line": 20
            }, 
            "type": "Boolean"
        }, 
        {
            "modifiers": [], 
            "name": "duplicatePreventionEnabled", 
            "visibility": "PUBLIC", 
            "references": [], 
            "location": {
                "column": 20, 
                "line": 21
            }, 
            "type": "Boolean"
        }, 
        {
            "modifiers": [], 
            "name": "emailGeneralizationEnabled", 
            "visibility": "PUBLIC", 
            "references": [], 
            "location": {
                "column": 20, 
                "line": 22
            }, 
            "type": "Boolean"
        }, 
        {
            "modifiers": [], 
            "name": "fuzzyMatchEnabled", 
            "visibility": "PUBLIC", 
            "references": [], 
            "location": {
                "column": 20, 
                "line": 23
            }, 
            "type": "Boolean"
        }, 
        {
            "modifiers": [], 
            "name": "matchedAccountAssociativityEnabled", 
            "visibility": "PUBLIC", 
            "references": [], 
            "location": {
                "column": 20, 
                "line": 24
            }, 
            "type": "Boolean"
        }, 
        {
            "modifiers": [], 
            "name": "matchedContactAssociativityEnabled", 
            "visibility": "PUBLIC", 
            "references": [], 
            "location": {
                "column": 20, 
                "line": 25
            }, 
            "type": "Boolean"
        }, 
        {
            "modifiers": [], 
            "name": "matchedLeadAssociativityEnabled", 
            "visibility": "PUBLIC", 
            "references": [], 
            "location": {
                "column": 20, 
                "line": 26
            }, 
            "type": "Boolean"
        }, 
        {
            "modifiers": [], 
            "name": "useGlobalUltimate", 
            "visibility": "PUBLIC", 
            "references": [], 
            "location": {
                "column": 20, 
                "line": 27
            }, 
            "type": "Boolean"
        }, 
        {
            "modifiers": [], 
            "name": "useDomesticUltimate", 
            "visibility": "PUBLIC", 
            "references": [], 
            "location": {
                "column": 20, 
                "line": 28
            }, 
            "type": "Boolean"
        }, 
        {
            "modifiers": [], 
            "name": "useNearestHQ", 
            "visibility": "PUBLIC", 
            "references": [], 
            "location": {
                "column": 20, 
                "line": 29
            }, 
            "type": "Boolean"
        }, 
        {
            "modifiers": [], 
            "name": "doProximityMatch", 
            "visibility": "PUBLIC", 
            "references": [], 
            "location": {
                "column": 20, 
                "line": 30
            }, 
            "type": "Boolean"
        }, 
        {
            "modifiers": [], 
            "name": "doCompanyNameOnlyMatch", 
            "visibility": "PUBLIC", 
            "references": [], 
            "location": {
                "column": 20, 
                "line": 31
            }, 
            "type": "Boolean"
        }, 
        {
            "modifiers": [], 
            "name": "normalizeAddress", 
            "visibility": "PUBLIC", 
            "references": [], 
            "location": {
                "column": 20, 
                "line": 32
            }, 
            "type": "Boolean"
        }, 
        {
            "modifiers": [], 
            "name": "dnbMatchesOnly", 
            "visibility": "PUBLIC", 
            "references": [], 
            "location": {
                "column": 20, 
                "line": 33
            }, 
            "type": "Boolean"
        }, 
        {
            "modifiers": [], 
            "name": "scenarioId", 
            "visibility": "PUBLIC", 
            "references": [], 
            "location": {
                "column": 19, 
                "line": 36
            }, 
            "type": "String"
        }, 
        {
            "modifiers": [], 
            "name": "scenarioName", 
            "visibility": "PUBLIC", 
            "references": [], 
            "location": {
                "column": 19, 
                "line": 37
            }, 
            "type": "String"
        }, 
        {
            "modifiers": [], 
            "name": "dupeThreshold", 
            "visibility": "PUBLIC", 
            "references": [], 
            "location": {
                "column": 20, 
                "line": 40
            }, 
            "type": "Integer"
        }, 
        {
            "modifiers": [], 
            "name": "settingId", 
            "visibility": "PUBLIC", 
            "references": [], 
            "location": {
                "column": 15, 
                "line": 43
            }, 
            "type": "Id"
        }, 
        {
            "modifiers": [], 
            "name": "cSetting", 
            "visibility": "PUBLIC", 
            "references": [], 
            "location": {
                "column": 31, 
                "line": 46
            }, 
            "type": "ddcDet__RuntimeSettings__c"
        }, 
        {
            "modifiers": [], 
            "name": "ACCOUNT_EVENT_TRIGGER_FIELD", 
            "visibility": "PUBLIC", 
            "references": [], 
            "location": {
                "column": 19, 
                "line": 51
            }, 
            "type": "String"
        }, 
        {
            "modifiers": [], 
            "name": "CONTACT_EVENT_TRIGGER_FIELD", 
            "visibility": "PUBLIC", 
            "references": [], 
            "location": {
                "column": 19, 
                "line": 52
            }, 
            "type": "String"
        }, 
        {
            "modifiers": [], 
            "name": "LEAD_EVENT_TRIGGER_FIELD", 
            "visibility": "PUBLIC", 
            "references": [], 
            "location": {
                "column": 19, 
                "line": 53
            }, 
            "type": "String"
        }, 
        {
            "modifiers": [], 
            "name": "LEAD_AUTOMATION_FIELD", 
            "visibility": "PUBLIC", 
            "references": [], 
            "location": {
                "column": 19, 
                "line": 54
            }, 
            "type": "String"
        }, 
        {
            "modifiers": [], 
            "name": "CONTACT_AUTOMATION_FIELD", 
            "visibility": "PUBLIC", 
            "references": [], 
            "location": {
                "column": 19, 
                "line": 55
            }, 
            "type": "String"
        }, 
        {
            "modifiers": [], 
            "name": "ACCOUNT_AUTOMATION_FIELD", 
            "visibility": "PUBLIC", 
            "references": [], 
            "location": {
                "column": 19, 
                "line": 56
            }, 
            "type": "String"
        }, 
        {
            "modifiers": [], 
            "name": "DEFAULT_SETTINGS_FIELD", 
            "visibility": "PUBLIC", 
            "references": [], 
            "location": {
                "column": 19, 
                "line": 57
            }, 
            "type": "String"
        }, 
        {
            "modifiers": [], 
            "name": "DOMAIN_MATCHING_ENABLED_FIELD", 
            "visibility": "PUBLIC", 
            "references": [], 
            "location": {
                "column": 19, 
                "line": 58
            }, 
            "type": "String"
        }, 
        {
            "modifiers": [], 
            "name": "DUNS_LOOKUP_ENABLED_FIELD", 
            "visibility": "PUBLIC", 
            "references": [], 
            "location": {
                "column": 19, 
                "line": 59
            }, 
            "type": "String"
        }, 
        {
            "modifiers": [], 
            "name": "DUPLICATE_IDENTIFICATION_ENABLED_FIELD", 
            "visibility": "PUBLIC", 
            "references": [], 
            "location": {
                "column": 19, 
                "line": 60
            }, 
            "type": "String"
        }, 
        {
            "modifiers": [], 
            "name": "DUPLICATE_PREVENTION_ENABLED_FIELD", 
            "visibility": "PUBLIC", 
            "references": [], 
            "location": {
                "column": 19, 
                "line": 61
            }, 
            "type": "String"
        }, 
        {
            "modifiers": [], 
            "name": "DUPLICATE_THRESHOLD_FIELD", 
            "visibility": "PUBLIC", 
            "references": [], 
            "location": {
                "column": 19, 
                "line": 62
            }, 
            "type": "String"
        }, 
        {
            "modifiers": [], 
            "name": "EMAIL_GENERALIZATION_ENABLED_FIELD", 
            "visibility": "PUBLIC", 
            "references": [], 
            "location": {
                "column": 19, 
                "line": 63
            }, 
            "type": "String"
        }, 
        {
            "modifiers": [], 
            "name": "FUZZY_MATCHING_ENABLED_FIELD", 
            "visibility": "PUBLIC", 
            "references": [], 
            "location": {
                "column": 19, 
                "line": 64
            }, 
            "type": "String"
        }, 
        {
            "modifiers": [], 
            "name": "MATCHED_ACCOUNT_ASSOCIATIVITY_ENABLED_FIELD", 
            "visibility": "PUBLIC", 
            "references": [], 
            "location": {
                "column": 19, 
                "line": 65
            }, 
            "type": "String"
        }, 
        {
            "modifiers": [], 
            "name": "MATCHED_CONTACT_ASSOCIATIVITY_ENABLED_FIELD", 
            "visibility": "PUBLIC", 
            "references": [], 
            "location": {
                "column": 19, 
                "line": 66
            }, 
            "type": "String"
        }, 
        {
            "modifiers": [], 
            "name": "MATCHED_LEAD_ASSOCIATIVITY_ENABLED_FIELD", 
            "visibility": "PUBLIC", 
            "references": [], 
            "location": {
                "column": 19, 
                "line": 67
            }, 
            "type": "String"
        }, 
        {
            "modifiers": [], 
            "name": "SCENARIO_ID_FIELD", 
            "visibility": "PUBLIC", 
            "references": [], 
            "location": {
                "column": 19, 
                "line": 68
            }, 
            "type": "String"
        }, 
        {
            "modifiers": [], 
            "name": "USE_DOMESTIC_ULTIMATE_MATCH_FIELD", 
            "visibility": "PUBLIC", 
            "references": [], 
            "location": {
                "column": 19, 
                "line": 69
            }, 
            "type": "String"
        }, 
        {
            "modifiers": [], 
            "name": "USE_GLOBAL_ULTIMATE_FIELD", 
            "visibility": "PUBLIC", 
            "references": [], 
            "location": {
                "column": 19, 
                "line": 70
            }, 
            "type": "String"
        }, 
        {
            "modifiers": [], 
            "name": "USE_NEAREST_HQ_MATCH_FIELD", 
            "visibility": "PUBLIC", 
            "references": [], 
            "location": {
                "column": 19, 
                "line": 71
            }, 
            "type": "String"
        }, 
        {
            "modifiers": [], 
            "name": "DO_PROXIMITY_MATCH_FIELD", 
            "visibility": "PUBLIC", 
            "references": [], 
            "location": {
                "column": 19, 
                "line": 72
            }, 
            "type": "String"
        }, 
        {
            "modifiers": [], 
            "name": "DO_COMPANY_NAME_ONLY_MATCH_FIELD", 
            "visibility": "PUBLIC", 
            "references": [], 
            "location": {
                "column": 19, 
                "line": 73
            }, 
            "type": "String"
        }, 
        {
            "modifiers": [], 
            "name": "NORMALIZE_ADDRESS_FIELD", 
            "visibility": "PUBLIC", 
            "references": [], 
            "location": {
                "column": 19, 
                "line": 74
            }, 
            "type": "String"
        }, 
        {
            "modifiers": [], 
            "name": "DNB_ONLY_MATCHES_FIELD", 
            "visibility": "PUBLIC", 
            "references": [], 
            "location": {
                "column": 19, 
                "line": 75
            }, 
            "type": "String"
        }, 
        {
            "modifiers": [
                "STATIC"
            ], 
            "name": "SOBJECT_NAME", 
            "visibility": "PUBLIC", 
            "references": [], 
            "location": {
                "column": 32, 
                "line": 4
            }, 
            "type": "String"
        }, 
        {
            "modifiers": [
                "STATIC"
            ], 
            "name": "settingsCache", 
            "visibility": "PRIVATE", 
            "references": [], 
            "location": {
                "column": 48, 
                "line": 82
            }, 
            "type": "Map"
        }
    ], 
    "methods": [
        {
            "modifiers": [], 
            "name": "upsertSettings", 
            "parameters": [
                {
                    "type": "RuntimeSetting", 
                    "name": "input"
                }, 
                {
                    "type": "LIST", 
                    "name": "messages"
                }
            ], 
            "visibility": "PUBLIC", 
            "references": [], 
            "location": {
                "column": 17, 
                "line": 211
            }, 
            "returnType": "void", 
            "type": null
        }, 
        {
            "modifiers": [], 
            "name": "toWrapper", 
            "parameters": [
                {
                    "type": "ddcDet__RuntimeSettings__c", 
                    "name": "input"
                }
            ], 
            "visibility": "PUBLIC", 
            "references": [], 
            "location": {
                "column": 27, 
                "line": 230
            }, 
            "returnType": "RuntimeSetting", 
            "type": null
        }, 
        {
            "modifiers": [], 
            "name": "toSobject", 
            "parameters": [
                {
                    "type": "RuntimeSetting", 
                    "name": "input"
                }
            ], 
            "visibility": "PUBLIC", 
            "references": [], 
            "location": {
                "column": 31, 
                "line": 267
            }, 
            "returnType": "ddcDet__RuntimeSettings__c", 
            "type": null
        }, 
        {
            "modifiers": [
                "STATIC"
            ], 
            "name": "getSettings", 
            "parameters": [
                {
                    "type": "String", 
                    "name": "scenarioId"
                }, 
                {
                    "type": "LIST", 
                    "name": "messages"
                }
            ], 
            "visibility": "PUBLIC", 
            "references": [], 
            "location": {
                "column": 34, 
                "line": 154
            }, 
            "returnType": "RuntimeSetting", 
            "type": null
        }
    ], 
    "innerClasses": [], 
    "variables": [
        {
            "type": "ddcDet__RuntimeSettings__c", 
            "modifiers": [], 
            "references": [], 
            "location": {
                "column": 46, 
                "line": 111
            }, 
            "name": "input"
        }, 
        {
            "type": "String", 
            "modifiers": [], 
            "references": [], 
            "location": {
                "column": 34, 
                "line": 143
            }, 
            "name": "scenarioId"
        }, 
        {
            "type": "LIST", 
            "modifiers": [], 
            "references": [], 
            "location": {
                "column": 66, 
                "line": 143
            }, 
            "name": "messages"
        }, 
        {
            "type": "RuntimeSetting", 
            "modifiers": [], 
            "references": [], 
            "location": {
                "column": 47, 
                "line": 211
            }, 
            "name": "input"
        }, 
        {
            "type": "LIST", 
            "modifiers": [], 
            "references": [], 
            "location": {
                "column": 74, 
                "line": 211
            }, 
            "name": "messages"
        }, 
        {
            "type": "ddcDet__RuntimeSettings__c", 
            "modifiers": [], 
            "references": [], 
            "location": {
                "column": 28, 
                "line": 216
            }, 
            "name": "rs"
        }, 
        {
            "type": "ddcDet__RuntimeSettings__c", 
            "modifiers": [], 
            "references": [], 
            "location": {
                "column": 56, 
                "line": 230
            }, 
            "name": "input"
        }, 
        {
            "type": "RuntimeSetting", 
            "modifiers": [], 
            "references": [], 
            "location": {
                "column": 24, 
                "line": 233
            }, 
            "name": "result"
        }, 
        {
            "type": "RuntimeSetting", 
            "modifiers": [], 
            "references": [], 
            "location": {
                "column": 56, 
                "line": 267
            }, 
            "name": "input"
        }, 
        {
            "type": "ddcDet__RuntimeSettings__c", 
            "modifiers": [], 
            "references": [], 
            "location": {
                "column": 28, 
                "line": 270
            }, 
            "name": "rs"
        }, 
        {
            "type": "String", 
            "modifiers": [], 
            "references": [], 
            "location": {
                "column": 53, 
                "line": 154
            }, 
            "name": "scenarioId"
        }, 
        {
            "type": "LIST", 
            "modifiers": [], 
            "references": [], 
            "location": {
                "column": 85, 
                "line": 154
            }, 
            "name": "messages"
        }, 
        {
            "type": "RuntimeSetting", 
            "modifiers": [], 
            "references": [], 
            "location": {
                "column": 24, 
                "line": 156
            }, 
            "name": "result"
        }, 
        {
            "type": "Map", 
            "modifiers": [], 
            "references": [], 
            "location": {
                "column": 46, 
                "line": 167
            }, 
            "name": "fieldmap"
        }, 
        {
            "type": "String", 
            "modifiers": [], 
            "references": [], 
            "location": {
                "column": 20, 
                "line": 168
            }, 
            "name": "soql"
        }, 
        {
            "type": "SObjectField", 
            "modifiers": [], 
            "references": [], 
            "location": {
                "column": 38, 
                "line": 170
            }, 
            "name": "fName"
        }, 
        {
            "type": "ddcDet__RuntimeSettings__c", 
            "modifiers": [], 
            "references": [], 
            "location": {
                "column": 33, 
                "line": 191
            }, 
            "name": "rs"
        }
    ], 
    "constructors": [
        {
            "modifiers": [], 
            "name": "RuntimeSetting", 
            "parameters": [], 
            "visibility": "PUBLIC", 
            "references": [], 
            "location": {
                "column": 12, 
                "line": 105
            }, 
            "type": null
        }, 
        {
            "modifiers": [], 
            "name": "RuntimeSetting", 
            "parameters": [
                {
                    "type": "ddcDet__RuntimeSettings__c", 
                    "name": "input"
                }
            ], 
            "visibility": "PUBLIC", 
            "references": [], 
            "location": {
                "column": 12, 
                "line": 111
            }, 
            "type": null
        }, 
        {
            "modifiers": [], 
            "name": "RuntimeSetting", 
            "parameters": [
                {
                    "type": "String", 
                    "name": "scenarioId"
                }, 
                {
                    "type": "LIST", 
                    "name": "messages"
                }
            ], 
            "visibility": "PUBLIC", 
            "references": [], 
            "location": {
                "column": 12, 
                "line": 143
            }, 
            "type": null
        }
    ], 
    "namespace": "ddcDet", 
    "name": "RuntimeSetting", 
    "tableDeclaration": {
        "type": "RuntimeSetting", 
        "modifiers": [], 
        "references": [], 
        "location": {
            "column": 14, 
            "line": 1
        }, 
        "name": "RuntimeSetting"
    }, 
    "key": "01pd0000002cijM", 
    "id": "01pd0000002cijM", 
    "externalReferences": []
}