{
    "properties": [
        {
            "modifiers": [], 
            "name": "l", 
            "visibility": "PRIVATE", 
            "references": [], 
            "location": {
                "column": 24, 
                "line": 83
            }, 
            "type": "Lead"
        }, 
        {
            "modifiers": [], 
            "name": "ddcLead", 
            "visibility": "PRIVATE", 
            "references": [], 
            "location": {
                "column": 18, 
                "line": 84
            }, 
            "type": "Lead"
        }, 
        {
            "modifiers": [], 
            "name": "lw", 
            "visibility": "PRIVATE", 
            "references": [], 
            "location": {
                "column": 21, 
                "line": 85
            }, 
            "type": "Wrapper"
        }, 
        {
            "modifiers": [], 
            "name": "sObjectFieldMap", 
            "visibility": "PRIVATE", 
            "references": [], 
            "location": {
                "column": 46, 
                "line": 87
            }, 
            "type": "Map"
        }, 
        {
            "modifiers": [], 
            "name": "messages", 
            "visibility": "PRIVATE", 
            "references": [], 
            "location": {
                "column": 43, 
                "line": 88
            }, 
            "type": "LIST"
        }, 
        {
            "modifiers": [], 
            "name": "notFound", 
            "visibility": "PRIVATE", 
            "references": [], 
            "location": {
                "column": 21, 
                "line": 89
            }, 
            "type": "Boolean"
        }, 
        {
            "modifiers": [], 
            "name": "inSync", 
            "visibility": "PRIVATE", 
            "references": [], 
            "location": {
                "column": 21, 
                "line": 90
            }, 
            "type": "Boolean"
        }, 
        {
            "modifiers": [], 
            "name": "hiddenFields", 
            "visibility": "PRIVATE", 
            "references": [], 
            "location": {
                "column": 21, 
                "line": 91
            }, 
            "type": "Boolean"
        }, 
        {
            "modifiers": [], 
            "name": "hasError", 
            "visibility": "PRIVATE", 
            "references": [], 
            "location": {
                "column": 21, 
                "line": 92
            }, 
            "type": "Boolean"
        }, 
        {
            "modifiers": [], 
            "name": "diffs", 
            "visibility": "PRIVATE", 
            "references": [], 
            "location": {
                "column": 34, 
                "line": 93
            }, 
            "type": "Map"
        }, 
        {
            "modifiers": [], 
            "name": "checkBoxes", 
            "visibility": "PRIVATE", 
            "references": [], 
            "location": {
                "column": 34, 
                "line": 94
            }, 
            "type": "Map"
        }, 
        {
            "modifiers": [], 
            "name": "isCompany", 
            "visibility": "PRIVATE", 
            "references": [], 
            "location": {
                "column": 21, 
                "line": 95
            }, 
            "type": "Boolean"
        }, 
        {
            "modifiers": [], 
            "name": "CRMAddressLine1", 
            "visibility": "PUBLIC", 
            "references": [], 
            "location": {
                "column": 19, 
                "line": 97
            }, 
            "type": "String"
        }, 
        {
            "modifiers": [], 
            "name": "CRMAddressLine2", 
            "visibility": "PUBLIC", 
            "references": [], 
            "location": {
                "column": 19, 
                "line": 98
            }, 
            "type": "String"
        }, 
        {
            "modifiers": [], 
            "name": "CRMAddressLine3", 
            "visibility": "PUBLIC", 
            "references": [], 
            "location": {
                "column": 19, 
                "line": 99
            }, 
            "type": "String"
        }, 
        {
            "modifiers": [], 
            "name": "DDCAddressLine1", 
            "visibility": "PUBLIC", 
            "references": [], 
            "location": {
                "column": 19, 
                "line": 101
            }, 
            "type": "String"
        }, 
        {
            "modifiers": [], 
            "name": "DDCAddressLine2", 
            "visibility": "PUBLIC", 
            "references": [], 
            "location": {
                "column": 19, 
                "line": 102
            }, 
            "type": "String"
        }, 
        {
            "modifiers": [], 
            "name": "DDCAddressLine3", 
            "visibility": "PUBLIC", 
            "references": [], 
            "location": {
                "column": 19, 
                "line": 103
            }, 
            "type": "String"
        }, 
        {
            "modifiers": [], 
            "name": "refreshParent", 
            "visibility": "PUBLIC", 
            "references": [], 
            "location": {
                "column": 20, 
                "line": 105
            }, 
            "type": "Boolean"
        }, 
        {
            "modifiers": [], 
            "name": "ddcid", 
            "visibility": "PUBLIC", 
            "references": [], 
            "location": {
                "column": 19, 
                "line": 107
            }, 
            "type": "String"
        }, 
        {
            "modifiers": [], 
            "name": "selectType", 
            "visibility": "PUBLIC", 
            "references": [], 
            "location": {
                "column": 19, 
                "line": 108
            }, 
            "type": "String"
        }, 
        {
            "modifiers": [], 
            "name": "sicCode", 
            "visibility": "PRIVATE", 
            "references": [], 
            "location": {
                "column": 20, 
                "line": 111
            }, 
            "type": "String"
        }, 
        {
            "modifiers": [], 
            "name": "leadName", 
            "visibility": "PUBLIC", 
            "references": [], 
            "location": {
                "column": 19, 
                "line": 113
            }, 
            "type": "String"
        }, 
        {
            "modifiers": [
                "STATIC"
            ], 
            "name": "FIELD_NAMES", 
            "visibility": "PRIVATE", 
            "references": [], 
            "location": {
                "column": 38, 
                "line": 11
            }, 
            "type": "Set"
        }, 
        {
            "modifiers": [
                "STATIC"
            ], 
            "name": "SEQUENCE", 
            "visibility": "PRIVATE", 
            "references": [], 
            "location": {
                "column": 39, 
                "line": 50
            }, 
            "type": "LIST"
        }
    ], 
    "methods": [
        {
            "modifiers": [], 
            "name": "getddccontactJson", 
            "parameters": [], 
            "visibility": "PUBLIC", 
            "references": [], 
            "location": {
                "column": 19, 
                "line": 416
            }, 
            "returnType": "String", 
            "type": null
        }, 
        {
            "modifiers": [], 
            "name": "getddccompanyJson", 
            "parameters": [], 
            "visibility": "PUBLIC", 
            "references": [], 
            "location": {
                "column": 19, 
                "line": 444
            }, 
            "returnType": "String", 
            "type": null
        }, 
        {
            "modifiers": [], 
            "name": "getCRM", 
            "parameters": [], 
            "visibility": "PUBLIC", 
            "references": [], 
            "location": {
                "column": 17, 
                "line": 491
            }, 
            "returnType": "Lead", 
            "type": null
        }, 
        {
            "modifiers": [], 
            "name": "getDDC", 
            "parameters": [], 
            "visibility": "PUBLIC", 
            "references": [], 
            "location": {
                "column": 17, 
                "line": 498
            }, 
            "returnType": "Lead", 
            "type": null
        }, 
        {
            "modifiers": [], 
            "name": "getCheckBoxes", 
            "parameters": [], 
            "visibility": "PUBLIC", 
            "references": [], 
            "location": {
                "column": 33, 
                "line": 505
            }, 
            "returnType": "Map", 
            "type": null
        }, 
        {
            "modifiers": [], 
            "name": "getNotFound", 
            "parameters": [], 
            "visibility": "PUBLIC", 
            "references": [], 
            "location": {
                "column": 20, 
                "line": 512
            }, 
            "returnType": "Boolean", 
            "type": null
        }, 
        {
            "modifiers": [], 
            "name": "getInSync", 
            "parameters": [], 
            "visibility": "PUBLIC", 
            "references": [], 
            "location": {
                "column": 20, 
                "line": 519
            }, 
            "returnType": "Boolean", 
            "type": null
        }, 
        {
            "modifiers": [], 
            "name": "getHasError", 
            "parameters": [], 
            "visibility": "PUBLIC", 
            "references": [], 
            "location": {
                "column": 20, 
                "line": 526
            }, 
            "returnType": "Boolean", 
            "type": null
        }, 
        {
            "modifiers": [], 
            "name": "getAddressLabel", 
            "parameters": [], 
            "visibility": "PUBLIC", 
            "references": [], 
            "location": {
                "column": 19, 
                "line": 535
            }, 
            "returnType": "String", 
            "type": null
        }, 
        {
            "modifiers": [], 
            "name": "getFieldNotUpdateableLabel", 
            "parameters": [], 
            "visibility": "PUBLIC", 
            "references": [], 
            "location": {
                "column": 19, 
                "line": 544
            }, 
            "returnType": "String", 
            "type": null
        }, 
        {
            "modifiers": [], 
            "name": "getDDCDunsNumberForDisplay", 
            "parameters": [], 
            "visibility": "PUBLIC", 
            "references": [], 
            "location": {
                "column": 19, 
                "line": 551
            }, 
            "returnType": "String", 
            "type": null
        }, 
        {
            "modifiers": [], 
            "name": "getDDCFullNameForDisplay", 
            "parameters": [], 
            "visibility": "PUBLIC", 
            "references": [], 
            "location": {
                "column": 19, 
                "line": 558
            }, 
            "returnType": "String", 
            "type": null
        }, 
        {
            "modifiers": [], 
            "name": "getSNCBody", 
            "parameters": [], 
            "visibility": "PUBLIC", 
            "references": [], 
            "location": {
                "column": 44, 
                "line": 565
            }, 
            "returnType": "pageblocksection", 
            "type": null
        }, 
        {
            "modifiers": [], 
            "name": "doUpdateAndRedirect", 
            "parameters": [], 
            "visibility": "PUBLIC", 
            "references": [], 
            "location": {
                "column": 26, 
                "line": 613
            }, 
            "returnType": "PageReference", 
            "type": null
        }, 
        {
            "modifiers": [], 
            "name": "doUpdate", 
            "parameters": [], 
            "visibility": "PUBLIC", 
            "references": [], 
            "location": {
                "column": 26, 
                "line": 620
            }, 
            "returnType": "PageReference", 
            "type": null
        }, 
        {
            "modifiers": [], 
            "name": "cancel", 
            "parameters": [], 
            "visibility": "PUBLIC", 
            "references": [], 
            "location": {
                "column": 26, 
                "line": 684
            }, 
            "returnType": "PageReference", 
            "type": null
        }, 
        {
            "modifiers": [], 
            "name": "initState", 
            "parameters": [], 
            "visibility": "PRIVATE", 
            "references": [], 
            "location": {
                "column": 18, 
                "line": 692
            }, 
            "returnType": "void", 
            "type": null
        }
    ], 
    "innerClasses": [], 
    "variables": [
        {
            "type": "Map", 
            "modifiers": [], 
            "references": [], 
            "location": {
                "column": 42, 
                "line": 131
            }, 
            "name": "fieldmap"
        }, 
        {
            "type": "String", 
            "modifiers": [], 
            "references": [], 
            "location": {
                "column": 16, 
                "line": 132
            }, 
            "name": "fieldListString"
        }, 
        {
            "type": "String", 
            "modifiers": [], 
            "references": [], 
            "location": {
                "column": 21, 
                "line": 133
            }, 
            "name": "fieldName"
        }, 
        {
            "type": "String", 
            "modifiers": [], 
            "references": [], 
            "location": {
                "column": 16, 
                "line": 138
            }, 
            "name": "id"
        }, 
        {
            "type": "String", 
            "modifiers": [], 
            "references": [], 
            "location": {
                "column": 16, 
                "line": 139
            }, 
            "name": "queryString"
        }, 
        {
            "type": "MatchScenario", 
            "modifiers": [], 
            "references": [], 
            "location": {
                "column": 23, 
                "line": 157
            }, 
            "name": "lwScenario"
        }, 
        {
            "type": "String", 
            "modifiers": [], 
            "references": [], 
            "location": {
                "column": 16, 
                "line": 158
            }, 
            "name": "contactId_field"
        }, 
        {
            "type": "String", 
            "modifiers": [], 
            "references": [], 
            "location": {
                "column": 16, 
                "line": 159
            }, 
            "name": "companyId_field"
        }, 
        {
            "type": "String", 
            "modifiers": [], 
            "references": [], 
            "location": {
                "column": 16, 
                "line": 160
            }, 
            "name": "contactId"
        }, 
        {
            "type": "String", 
            "modifiers": [], 
            "references": [], 
            "location": {
                "column": 16, 
                "line": 161
            }, 
            "name": "companyId"
        }, 
        {
            "type": "String", 
            "modifiers": [], 
            "references": [], 
            "location": {
                "column": 16, 
                "line": 170
            }, 
            "name": "leadSelectType"
        }, 
        {
            "type": "MatcherContact", 
            "modifiers": [], 
            "references": [], 
            "location": {
                "column": 24, 
                "line": 176
            }, 
            "name": "mc"
        }, 
        {
            "type": "Set", 
            "modifiers": [], 
            "references": [], 
            "location": {
                "column": 22, 
                "line": 183
            }, 
            "name": "ids"
        }, 
        {
            "type": "Map", 
            "modifiers": [], 
            "references": [], 
            "location": {
                "column": 34, 
                "line": 184
            }, 
            "name": "sContacts"
        }, 
        {
            "type": "Map", 
            "modifiers": [], 
            "references": [], 
            "location": {
                "column": 34, 
                "line": 185
            }, 
            "name": "sCompanies"
        }, 
        {
            "type": "DDCContact", 
            "modifiers": [], 
            "references": [], 
            "location": {
                "column": 22, 
                "line": 203
            }, 
            "name": "thisContact"
        }, 
        {
            "type": "MatcherLocation", 
            "modifiers": [], 
            "references": [], 
            "location": {
                "column": 27, 
                "line": 217
            }, 
            "name": "ml"
        }, 
        {
            "type": "MatcherAddress", 
            "modifiers": [], 
            "references": [], 
            "location": {
                "column": 26, 
                "line": 220
            }, 
            "name": "ma"
        }, 
        {
            "type": "LIST", 
            "modifiers": [], 
            "references": [], 
            "location": {
                "column": 34, 
                "line": 235
            }, 
            "name": "skeletons"
        }, 
        {
            "type": "DDCCompany", 
            "modifiers": [], 
            "references": [], 
            "location": {
                "column": 36, 
                "line": 237
            }, 
            "name": "newCompany"
        }, 
        {
            "type": "DDCCompany", 
            "modifiers": [], 
            "references": [], 
            "location": {
                "column": 36, 
                "line": 243
            }, 
            "name": "newCompany"
        }, 
        {
            "type": "Map", 
            "modifiers": [], 
            "references": [], 
            "location": {
                "column": 45, 
                "line": 250
            }, 
            "name": "additionalCompanies"
        }, 
        {
            "type": "DDCCompany", 
            "modifiers": [], 
            "references": [], 
            "location": {
                "column": 22, 
                "line": 295
            }, 
            "name": "thisCompany"
        }, 
        {
            "type": "MatcherLocation", 
            "modifiers": [], 
            "references": [], 
            "location": {
                "column": 27, 
                "line": 303
            }, 
            "name": "ml"
        }, 
        {
            "type": "MatcherAddress", 
            "modifiers": [], 
            "references": [], 
            "location": {
                "column": 32, 
                "line": 306
            }, 
            "name": "ma"
        }, 
        {
            "type": "Boolean", 
            "modifiers": [], 
            "references": [], 
            "location": {
                "column": 21, 
                "line": 382
            }, 
            "name": "hasMessage"
        }, 
        {
            "type": "Message", 
            "modifiers": [], 
            "references": [], 
            "location": {
                "column": 36, 
                "line": 383
            }, 
            "name": "message"
        }, 
        {
            "type": "LIST", 
            "modifiers": [], 
            "references": [], 
            "location": {
                "column": 23, 
                "line": 418
            }, 
            "name": "sContacts"
        }, 
        {
            "type": "String", 
            "modifiers": [], 
            "references": [], 
            "location": {
                "column": 13, 
                "line": 421
            }, 
            "name": "javascript_string"
        }, 
        {
            "type": "Integer", 
            "modifiers": [], 
            "references": [], 
            "location": {
                "column": 19, 
                "line": 425
            }, 
            "name": "i"
        }, 
        {
            "type": "DDCContact", 
            "modifiers": [], 
            "references": [], 
            "location": {
                "column": 19, 
                "line": 426
            }, 
            "name": "c"
        }, 
        {
            "type": "LIST", 
            "modifiers": [], 
            "references": [], 
            "location": {
                "column": 23, 
                "line": 446
            }, 
            "name": "sCompanies"
        }, 
        {
            "type": "String", 
            "modifiers": [], 
            "references": [], 
            "location": {
                "column": 16, 
                "line": 456
            }, 
            "name": "javascript_string"
        }, 
        {
            "type": "Integer", 
            "modifiers": [], 
            "references": [], 
            "location": {
                "column": 22, 
                "line": 464
            }, 
            "name": "i"
        }, 
        {
            "type": "pageblocksection", 
            "modifiers": [], 
            "references": [], 
            "location": {
                "column": 41, 
                "line": 566
            }, 
            "name": "body"
        }, 
        {
            "type": "Boolean", 
            "modifiers": [], 
            "references": [], 
            "location": {
                "column": 17, 
                "line": 568
            }, 
            "name": "allEqual"
        }, 
        {
            "type": "String", 
            "modifiers": [], 
            "references": [], 
            "location": {
                "column": 21, 
                "line": 569
            }, 
            "name": "fieldName"
        }, 
        {
            "type": "String", 
            "modifiers": [], 
            "references": [], 
            "location": {
                "column": 20, 
                "line": 570
            }, 
            "name": "mappedFieldName"
        }, 
        {
            "type": "Boolean", 
            "modifiers": [], 
            "references": [], 
            "location": {
                "column": 25, 
                "line": 588
            }, 
            "name": "diff"
        }, 
        {
            "type": "PageReference", 
            "modifiers": [], 
            "references": [], 
            "location": {
                "column": 23, 
                "line": 615
            }, 
            "name": "p"
        }, 
        {
            "type": "DescribeSObjectResult", 
            "modifiers": [], 
            "references": [], 
            "location": {
                "column": 38, 
                "line": 622
            }, 
            "name": "leadDescribed"
        }, 
        {
            "type": "Set", 
            "modifiers": [], 
            "references": [], 
            "location": {
                "column": 21, 
                "line": 630
            }, 
            "name": "fieldNames"
        }, 
        {
            "type": "String", 
            "modifiers": [], 
            "references": [], 
            "location": {
                "column": 21, 
                "line": 631
            }, 
            "name": "fieldName"
        }, 
        {
            "type": "String", 
            "modifiers": [], 
            "references": [], 
            "location": {
                "column": 29, 
                "line": 637
            }, 
            "name": "nameField"
        }, 
        {
            "type": "String", 
            "modifiers": [], 
            "references": [], 
            "location": {
                "column": 29, 
                "line": 644
            }, 
            "name": "addressField"
        }, 
        {
            "type": "Boolean", 
            "modifiers": [], 
            "references": [], 
            "location": {
                "column": 17, 
                "line": 667
            }, 
            "name": "success"
        }, 
        {
            "type": "String", 
            "modifiers": [], 
            "references": [], 
            "location": {
                "column": 21, 
                "line": 694
            }, 
            "name": "fieldName"
        }, 
        {
            "type": "String", 
            "modifiers": [], 
            "references": [], 
            "location": {
                "column": 20, 
                "line": 695
            }, 
            "name": "ddcValue"
        }, 
        {
            "type": "Boolean", 
            "modifiers": [], 
            "references": [], 
            "location": {
                "column": 21, 
                "line": 699
            }, 
            "name": "nameDiff"
        }, 
        {
            "type": "String", 
            "modifiers": [], 
            "references": [], 
            "location": {
                "column": 21, 
                "line": 714
            }, 
            "name": "fieldName"
        }, 
        {
            "type": "String", 
            "modifiers": [], 
            "references": [], 
            "location": {
                "column": 20, 
                "line": 715
            }, 
            "name": "ddcValue"
        }, 
        {
            "type": "Boolean", 
            "modifiers": [], 
            "references": [], 
            "location": {
                "column": 21, 
                "line": 719
            }, 
            "name": "addressDiff"
        }, 
        {
            "type": "String", 
            "modifiers": [], 
            "references": [], 
            "location": {
                "column": 21, 
                "line": 756
            }, 
            "name": "fieldName"
        }
    ], 
    "constructors": [
        {
            "modifiers": [], 
            "name": "SncLeadController", 
            "parameters": [], 
            "visibility": "PUBLIC", 
            "references": [], 
            "location": {
                "column": 12, 
                "line": 119
            }, 
            "type": null
        }
    ], 
    "namespace": "ddcDet", 
    "name": "SncLeadController", 
    "tableDeclaration": {
        "type": "SncLeadController", 
        "modifiers": [], 
        "references": [], 
        "location": {
            "column": 14, 
            "line": 1
        }, 
        "name": "SncLeadController"
    }, 
    "key": "01pd0000002ce3Q", 
    "id": "01pd0000002ce3Q", 
    "externalReferences": []
}