{
    "externalReferences": [], 
    "innerClasses": [], 
    "variables": [
        {
            "references": [], 
            "modifiers": [], 
            "type": "Set", 
            "name": "idSet", 
            "location": {
                "column": 51, 
                "line": 40
            }
        }, 
        {
            "references": [], 
            "modifiers": [], 
            "type": "Id", 
            "name": "thisId", 
            "location": {
                "column": 12, 
                "line": 48
            }
        }, 
        {
            "references": [], 
            "modifiers": [], 
            "type": "Set", 
            "name": "idSet", 
            "location": {
                "column": 50, 
                "line": 64
            }
        }, 
        {
            "references": [], 
            "modifiers": [], 
            "type": "Id", 
            "name": "thisId", 
            "location": {
                "column": 12, 
                "line": 72
            }
        }
    ], 
    "constructors": [], 
    "namespace": "ddcDet", 
    "id": "01pd0000002agIv", 
    "tableDeclaration": {
        "references": [], 
        "modifiers": [], 
        "type": "RuntimeState", 
        "name": "RuntimeState", 
        "location": {
            "column": 14, 
            "line": 7
        }
    }, 
    "methods": [
        {
            "modifiers": [
                "STATIC"
            ], 
            "name": "getBeforeRunStatus", 
            "parameters": [
                {
                    "type": "Set", 
                    "name": "idSet"
                }
            ], 
            "visibility": "GLOBAL", 
            "references": [], 
            "location": {
                "column": 24, 
                "line": 40
            }, 
            "returnType": "Boolean", 
            "type": null
        }, 
        {
            "modifiers": [
                "STATIC"
            ], 
            "name": "getAfterRunStatus", 
            "parameters": [
                {
                    "type": "Set", 
                    "name": "idSet"
                }
            ], 
            "visibility": "GLOBAL", 
            "references": [], 
            "location": {
                "column": 24, 
                "line": 64
            }, 
            "returnType": "Boolean", 
            "type": null
        }, 
        {
            "modifiers": [
                "STATIC"
            ], 
            "name": "dump", 
            "parameters": [], 
            "visibility": "GLOBAL", 
            "references": [], 
            "location": {
                "column": 23, 
                "line": 88
            }, 
            "returnType": "String", 
            "type": null
        }
    ], 
    "key": "01pd0000002agIv", 
    "properties": [
        {
            "modifiers": [
                "STATIC"
            ], 
            "name": "IS_BATCH_CONTEXT", 
            "visibility": "GLOBAL", 
            "references": [], 
            "location": {
                "column": 24, 
                "line": 9
            }, 
            "type": "Boolean"
        }, 
        {
            "modifiers": [
                "STATIC"
            ], 
            "name": "IS_TRIGGERED_CONTEXT", 
            "visibility": "GLOBAL", 
            "references": [], 
            "location": {
                "column": 24, 
                "line": 11
            }, 
            "type": "Boolean"
        }, 
        {
            "modifiers": [
                "STATIC"
            ], 
            "name": "IS_SINGLE_RECORD", 
            "visibility": "GLOBAL", 
            "references": [], 
            "location": {
                "column": 24, 
                "line": 13
            }, 
            "type": "Boolean"
        }, 
        {
            "modifiers": [
                "STATIC"
            ], 
            "name": "IS_FUTURE_CONTEXT", 
            "visibility": "GLOBAL", 
            "references": [], 
            "location": {
                "column": 24, 
                "line": 15
            }, 
            "type": "Boolean"
        }, 
        {
            "modifiers": [
                "STATIC"
            ], 
            "name": "HOST_IS_BEFORE", 
            "visibility": "GLOBAL", 
            "references": [], 
            "location": {
                "column": 24, 
                "line": 17
            }, 
            "type": "Boolean"
        }, 
        {
            "modifiers": [
                "STATIC"
            ], 
            "name": "HOST_IS_AFTER", 
            "visibility": "GLOBAL", 
            "references": [], 
            "location": {
                "column": 24, 
                "line": 19
            }, 
            "type": "Boolean"
        }, 
        {
            "modifiers": [
                "STATIC"
            ], 
            "name": "ORIG_CONTEXT_WAS_INSERT", 
            "visibility": "GLOBAL", 
            "references": [], 
            "location": {
                "column": 24, 
                "line": 21
            }, 
            "type": "Boolean"
        }, 
        {
            "modifiers": [
                "STATIC"
            ], 
            "name": "ORIG_CONTEXT_WAS_UPDATE", 
            "visibility": "GLOBAL", 
            "references": [], 
            "location": {
                "column": 24, 
                "line": 23
            }, 
            "type": "Boolean"
        }, 
        {
            "modifiers": [
                "STATIC"
            ], 
            "name": "beforeContinuumHasBeenSet", 
            "visibility": "GLOBAL", 
            "references": [], 
            "location": {
                "column": 24, 
                "line": 25
            }, 
            "type": "Boolean"
        }, 
        {
            "modifiers": [
                "STATIC"
            ], 
            "name": "afterContinuumHasBeenSet", 
            "visibility": "GLOBAL", 
            "references": [], 
            "location": {
                "column": 24, 
                "line": 27
            }, 
            "type": "Boolean"
        }, 
        {
            "modifiers": [
                "STATIC"
            ], 
            "name": "setBeforeContinuum", 
            "visibility": "PRIVATE", 
            "references": [], 
            "location": {
                "column": 17, 
                "line": 29
            }, 
            "type": "Set"
        }, 
        {
            "modifiers": [
                "STATIC"
            ], 
            "name": "setAfterContinuum", 
            "visibility": "PRIVATE", 
            "references": [], 
            "location": {
                "column": 17, 
                "line": 31
            }, 
            "type": "Set"
        }
    ], 
    "name": "RuntimeState"
}