{
    "externalReferences": [], 
    "innerClasses": [], 
    "variables": [
        {
            "references": [], 
            "modifiers": [], 
            "type": "Wrapper", 
            "name": "w", 
            "location": {
                "column": 44, 
                "line": 12
            }
        }
    ], 
    "constructors": [
        {
            "modifiers": [], 
            "name": "ContactWrapperDecorator", 
            "parameters": [
                {
                    "type": "Wrapper", 
                    "name": "w"
                }
            ], 
            "visibility": "PUBLIC", 
            "references": [], 
            "location": {
                "column": 12, 
                "line": 12
            }, 
            "type": null
        }
    ], 
    "namespace": "ddcDet", 
    "id": "01pd0000002cw6Q", 
    "tableDeclaration": {
        "references": [], 
        "modifiers": [], 
        "type": "ContactWrapperDecorator", 
        "name": "ContactWrapperDecorator", 
        "location": {
            "column": 14, 
            "line": 1
        }
    }, 
    "methods": [
        {
            "modifiers": [], 
            "name": "getScenario", 
            "parameters": [], 
            "visibility": "PUBLIC", 
            "references": [], 
            "location": {
                "column": 35, 
                "line": 17
            }, 
            "returnType": "MatchScenario", 
            "type": null
        }, 
        {
            "modifiers": [], 
            "name": "getIsQualified", 
            "parameters": [], 
            "visibility": "PRIVATE", 
            "references": [], 
            "location": {
                "column": 21, 
                "line": 21
            }, 
            "returnType": "Boolean", 
            "type": null
        }
    ], 
    "key": "01pd0000002cw6Q", 
    "properties": [
        {
            "modifiers": [], 
            "name": "w", 
            "visibility": "PRIVATE", 
            "references": [], 
            "location": {
                "column": 21, 
                "line": 3
            }, 
            "type": "Wrapper"
        }, 
        {
            "modifiers": [], 
            "name": "isQualified", 
            "visibility": "PUBLIC", 
            "references": [], 
            "location": {
                "column": 20, 
                "line": 5
            }, 
            "type": "Boolean"
        }
    ], 
    "name": "ContactWrapperDecorator"
}