{
    "properties": [
        {
            "modifiers": [], 
            "name": "scenarioId", 
            "visibility": "PUBLIC", 
            "references": [], 
            "location": {
                "column": 19, 
                "line": 6
            }, 
            "type": "String"
        }, 
        {
            "modifiers": [], 
            "name": "scenarioName", 
            "visibility": "PUBLIC", 
            "references": [], 
            "location": {
                "column": 19, 
                "line": 7
            }, 
            "type": "String"
        }, 
        {
            "modifiers": [], 
            "name": "objectName", 
            "visibility": "PUBLIC", 
            "references": [], 
            "location": {
                "column": 19, 
                "line": 8
            }, 
            "type": "String"
        }, 
        {
            "modifiers": [], 
            "name": "rule1", 
            "visibility": "PUBLIC", 
            "references": [], 
            "location": {
                "column": 19, 
                "line": 9
            }, 
            "type": "String"
        }, 
        {
            "modifiers": [], 
            "name": "rule2", 
            "visibility": "PUBLIC", 
            "references": [], 
            "location": {
                "column": 19, 
                "line": 10
            }, 
            "type": "String"
        }, 
        {
            "modifiers": [], 
            "name": "rule3", 
            "visibility": "PUBLIC", 
            "references": [], 
            "location": {
                "column": 19, 
                "line": 11
            }, 
            "type": "String"
        }, 
        {
            "modifiers": [], 
            "name": "rule4", 
            "visibility": "PUBLIC", 
            "references": [], 
            "location": {
                "column": 19, 
                "line": 12
            }, 
            "type": "String"
        }, 
        {
            "modifiers": [], 
            "name": "rule5", 
            "visibility": "PUBLIC", 
            "references": [], 
            "location": {
                "column": 19, 
                "line": 13
            }, 
            "type": "String"
        }, 
        {
            "modifiers": [], 
            "name": "runOrder", 
            "visibility": "PUBLIC", 
            "references": [], 
            "location": {
                "column": 20, 
                "line": 15
            }, 
            "type": "Integer"
        }, 
        {
            "modifiers": [], 
            "name": "matchConfidenceThreshold", 
            "visibility": "PUBLIC", 
            "references": [], 
            "location": {
                "column": 20, 
                "line": 18
            }, 
            "type": "Integer"
        }, 
        {
            "modifiers": [], 
            "name": "companyAntipatternWeight", 
            "visibility": "PUBLIC", 
            "references": [], 
            "location": {
                "column": 20, 
                "line": 19
            }, 
            "type": "Integer"
        }, 
        {
            "modifiers": [], 
            "name": "companyDirectPhoneWeight", 
            "visibility": "PUBLIC", 
            "references": [], 
            "location": {
                "column": 20, 
                "line": 20
            }, 
            "type": "Integer"
        }, 
        {
            "modifiers": [], 
            "name": "companyNameLocationWeight", 
            "visibility": "PUBLIC", 
            "references": [], 
            "location": {
                "column": 20, 
                "line": 21
            }, 
            "type": "Integer"
        }, 
        {
            "modifiers": [], 
            "name": "companyNameDomainWeight", 
            "visibility": "PUBLIC", 
            "references": [], 
            "location": {
                "column": 20, 
                "line": 22
            }, 
            "type": "Integer"
        }, 
        {
            "modifiers": [], 
            "name": "companyNameOnlyWeight", 
            "visibility": "PUBLIC", 
            "references": [], 
            "location": {
                "column": 20, 
                "line": 23
            }, 
            "type": "Integer"
        }, 
        {
            "modifiers": [], 
            "name": "emailWeight", 
            "visibility": "PUBLIC", 
            "references": [], 
            "location": {
                "column": 20, 
                "line": 24
            }, 
            "type": "Integer"
        }, 
        {
            "modifiers": [], 
            "name": "firstLastPhoneWeight", 
            "visibility": "PUBLIC", 
            "references": [], 
            "location": {
                "column": 20, 
                "line": 25
            }, 
            "type": "Integer"
        }, 
        {
            "modifiers": [], 
            "name": "firstLastTitleWeight", 
            "visibility": "PUBLIC", 
            "references": [], 
            "location": {
                "column": 20, 
                "line": 26
            }, 
            "type": "Integer"
        }, 
        {
            "modifiers": [], 
            "name": "firstLastGeneralizedEmailWeight", 
            "visibility": "PUBLIC", 
            "references": [], 
            "location": {
                "column": 20, 
                "line": 27
            }, 
            "type": "Integer"
        }, 
        {
            "modifiers": [], 
            "name": "locationAgreementWeight", 
            "visibility": "PUBLIC", 
            "references": [], 
            "location": {
                "column": 20, 
                "line": 28
            }, 
            "type": "Integer"
        }, 
        {
            "modifiers": [], 
            "name": "tradestyleWeight", 
            "visibility": "PUBLIC", 
            "references": [], 
            "location": {
                "column": 20, 
                "line": 29
            }, 
            "type": "Integer"
        }, 
        {
            "modifiers": [], 
            "name": "websiteDomainWeight", 
            "visibility": "PUBLIC", 
            "references": [], 
            "location": {
                "column": 20, 
                "line": 30
            }, 
            "type": "Integer"
        }, 
        {
            "modifiers": [], 
            "name": "isDefault", 
            "visibility": "PUBLIC", 
            "references": [], 
            "location": {
                "column": 20, 
                "line": 33
            }, 
            "type": "Boolean"
        }, 
        {
            "modifiers": [], 
            "name": "isActive", 
            "visibility": "PUBLIC", 
            "references": [], 
            "location": {
                "column": 20, 
                "line": 34
            }, 
            "type": "Boolean"
        }, 
        {
            "modifiers": [], 
            "name": "thisMapping", 
            "visibility": "PUBLIC", 
            "references": [], 
            "location": {
                "column": 37, 
                "line": 111
            }, 
            "type": "Map"
        }, 
        {
            "modifiers": [], 
            "name": "thisSetting", 
            "visibility": "PUBLIC", 
            "references": [], 
            "location": {
                "column": 27, 
                "line": 112
            }, 
            "type": "RuntimeSetting"
        }, 
        {
            "modifiers": [], 
            "name": "thisConcreteScenario", 
            "visibility": "PUBLIC", 
            "references": [], 
            "location": {
                "column": 30, 
                "line": 115
            }, 
            "type": "ddcDet__Match_Scenario__c"
        }, 
        {
            "modifiers": [
                "STATIC"
            ], 
            "name": "SOBJECT_NAME", 
            "visibility": "PUBLIC", 
            "references": [], 
            "location": {
                "column": 32, 
                "line": 37
            }, 
            "type": "String"
        }, 
        {
            "modifiers": [
                "STATIC"
            ], 
            "name": "OBJECT_NAME_FIELD", 
            "visibility": "PUBLIC", 
            "references": [], 
            "location": {
                "column": 32, 
                "line": 38
            }, 
            "type": "String"
        }, 
        {
            "modifiers": [
                "STATIC"
            ], 
            "name": "RULE_1_FIELD", 
            "visibility": "PUBLIC", 
            "references": [], 
            "location": {
                "column": 32, 
                "line": 39
            }, 
            "type": "String"
        }, 
        {
            "modifiers": [
                "STATIC"
            ], 
            "name": "RULE_2_FIELD", 
            "visibility": "PUBLIC", 
            "references": [], 
            "location": {
                "column": 32, 
                "line": 40
            }, 
            "type": "String"
        }, 
        {
            "modifiers": [
                "STATIC"
            ], 
            "name": "RULE_3_FIELD", 
            "visibility": "PUBLIC", 
            "references": [], 
            "location": {
                "column": 32, 
                "line": 41
            }, 
            "type": "String"
        }, 
        {
            "modifiers": [
                "STATIC"
            ], 
            "name": "RULE_4_FIELD", 
            "visibility": "PUBLIC", 
            "references": [], 
            "location": {
                "column": 32, 
                "line": 42
            }, 
            "type": "String"
        }, 
        {
            "modifiers": [
                "STATIC"
            ], 
            "name": "RULE_5_FIELD", 
            "visibility": "PUBLIC", 
            "references": [], 
            "location": {
                "column": 32, 
                "line": 43
            }, 
            "type": "String"
        }, 
        {
            "modifiers": [
                "STATIC"
            ], 
            "name": "RUN_ORDER_FIELD", 
            "visibility": "PUBLIC", 
            "references": [], 
            "location": {
                "column": 32, 
                "line": 44
            }, 
            "type": "String"
        }, 
        {
            "modifiers": [
                "STATIC"
            ], 
            "name": "FILTER_LOGIC_FIELD", 
            "visibility": "PUBLIC", 
            "references": [], 
            "location": {
                "column": 32, 
                "line": 45
            }, 
            "type": "String"
        }, 
        {
            "modifiers": [
                "STATIC"
            ], 
            "name": "IS_DEFAULT_FIELD", 
            "visibility": "PUBLIC", 
            "references": [], 
            "location": {
                "column": 32, 
                "line": 46
            }, 
            "type": "String"
        }, 
        {
            "modifiers": [
                "STATIC"
            ], 
            "name": "ACTIVE_FIELD", 
            "visibility": "PUBLIC", 
            "references": [], 
            "location": {
                "column": 32, 
                "line": 47
            }, 
            "type": "String"
        }, 
        {
            "modifiers": [
                "STATIC"
            ], 
            "name": "MATCH_THRESHOLD_WEIGHT_FIELD", 
            "visibility": "PUBLIC", 
            "references": [], 
            "location": {
                "column": 32, 
                "line": 48
            }, 
            "type": "String"
        }, 
        {
            "modifiers": [
                "STATIC"
            ], 
            "name": "COMPANY_ANTIPATTERN_WEIGHT_FIELD", 
            "visibility": "PUBLIC", 
            "references": [], 
            "location": {
                "column": 32, 
                "line": 49
            }, 
            "type": "String"
        }, 
        {
            "modifiers": [
                "STATIC"
            ], 
            "name": "COMPANY_PHONE_WEIGHT_FIELD", 
            "visibility": "PUBLIC", 
            "references": [], 
            "location": {
                "column": 32, 
                "line": 50
            }, 
            "type": "String"
        }, 
        {
            "modifiers": [
                "STATIC"
            ], 
            "name": "COMPANY_NAME_LOCATION_WEIGHT_FIELD", 
            "visibility": "PUBLIC", 
            "references": [], 
            "location": {
                "column": 32, 
                "line": 51
            }, 
            "type": "String"
        }, 
        {
            "modifiers": [
                "STATIC"
            ], 
            "name": "COMPANY_NAME_ONLY_WEIGHT_FIELD", 
            "visibility": "PUBLIC", 
            "references": [], 
            "location": {
                "column": 32, 
                "line": 52
            }, 
            "type": "String"
        }, 
        {
            "modifiers": [
                "STATIC"
            ], 
            "name": "COMPANY_NAME_WEBSITE_DOMAIN_WEIGHT_FIELD", 
            "visibility": "PUBLIC", 
            "references": [], 
            "location": {
                "column": 32, 
                "line": 53
            }, 
            "type": "String"
        }, 
        {
            "modifiers": [
                "STATIC"
            ], 
            "name": "EMAIL_WEIGHT_FIELD", 
            "visibility": "PUBLIC", 
            "references": [], 
            "location": {
                "column": 32, 
                "line": 54
            }, 
            "type": "String"
        }, 
        {
            "modifiers": [
                "STATIC"
            ], 
            "name": "FN_LN_GENERALIZED_EMAIL_WEIGHT_FIELD", 
            "visibility": "PUBLIC", 
            "references": [], 
            "location": {
                "column": 32, 
                "line": 55
            }, 
            "type": "String"
        }, 
        {
            "modifiers": [
                "STATIC"
            ], 
            "name": "FN_LN_PHONE_WEIGHT_FIELD", 
            "visibility": "PUBLIC", 
            "references": [], 
            "location": {
                "column": 32, 
                "line": 56
            }, 
            "type": "String"
        }, 
        {
            "modifiers": [
                "STATIC"
            ], 
            "name": "FN_LN_TITLE_WEIGHT_FIELD", 
            "visibility": "PUBLIC", 
            "references": [], 
            "location": {
                "column": 32, 
                "line": 57
            }, 
            "type": "String"
        }, 
        {
            "modifiers": [
                "STATIC"
            ], 
            "name": "LOCATION_AGREEMENT_WEIGHT_FIELD", 
            "visibility": "PUBLIC", 
            "references": [], 
            "location": {
                "column": 32, 
                "line": 58
            }, 
            "type": "String"
        }, 
        {
            "modifiers": [
                "STATIC"
            ], 
            "name": "TRADESTYLE_WEIGHT_FIELD", 
            "visibility": "PUBLIC", 
            "references": [], 
            "location": {
                "column": 32, 
                "line": 59
            }, 
            "type": "String"
        }, 
        {
            "modifiers": [
                "STATIC"
            ], 
            "name": "WEBSITE_DOMAIN_WEIGHT_FIELD", 
            "visibility": "PUBLIC", 
            "references": [], 
            "location": {
                "column": 32, 
                "line": 60
            }, 
            "type": "String"
        }, 
        {
            "modifiers": [
                "STATIC"
            ], 
            "name": "defaultCache", 
            "visibility": "PRIVATE", 
            "references": [], 
            "location": {
                "column": 34, 
                "line": 69
            }, 
            "type": "MatchScenario"
        }, 
        {
            "modifiers": [
                "STATIC"
            ], 
            "name": "scenarioCache", 
            "visibility": "PRIVATE", 
            "references": [], 
            "location": {
                "column": 47, 
                "line": 75
            }, 
            "type": "Map"
        }, 
        {
            "modifiers": [
                "STATIC"
            ], 
            "name": "wrapperCache", 
            "visibility": "PRIVATE", 
            "references": [], 
            "location": {
                "column": 47, 
                "line": 84
            }, 
            "type": "Map"
        }, 
        {
            "modifiers": [
                "STATIC"
            ], 
            "name": "objectScenariosCache", 
            "visibility": "PRIVATE", 
            "references": [], 
            "location": {
                "column": 51, 
                "line": 97
            }, 
            "type": "Map"
        }
    ], 
    "methods": [
        {
            "modifiers": [], 
            "name": "compareTo", 
            "parameters": [
                {
                    "type": "Object", 
                    "name": "compareTo"
                }
            ], 
            "visibility": "PUBLIC", 
            "references": [], 
            "location": {
                "column": 20, 
                "line": 203
            }, 
            "returnType": "Integer", 
            "type": null
        }, 
        {
            "modifiers": [
                "STATIC"
            ], 
            "name": "getDefault", 
            "parameters": [
                {
                    "type": "String", 
                    "name": "objName"
                }, 
                {
                    "type": "LIST", 
                    "name": "messages"
                }
            ], 
            "visibility": "PUBLIC", 
            "references": [], 
            "location": {
                "column": 33, 
                "line": 227
            }, 
            "returnType": "MatchScenario", 
            "type": null
        }, 
        {
            "modifiers": [
                "STATIC"
            ], 
            "name": "getAllScenariosForObject", 
            "parameters": [
                {
                    "type": "String", 
                    "name": "objName"
                }, 
                {
                    "type": "LIST", 
                    "name": "messages"
                }
            ], 
            "visibility": "PUBLIC", 
            "references": [], 
            "location": {
                "column": 50, 
                "line": 282
            }, 
            "returnType": "Map", 
            "type": null
        }, 
        {
            "modifiers": [
                "STATIC"
            ], 
            "name": "getScenarioDefinition", 
            "parameters": [
                {
                    "type": "String", 
                    "name": "scenarioId"
                }, 
                {
                    "type": "LIST", 
                    "name": "messages"
                }
            ], 
            "visibility": "PUBLIC", 
            "references": [], 
            "location": {
                "column": 33, 
                "line": 333
            }, 
            "returnType": "MatchScenario", 
            "type": null
        }, 
        {
            "modifiers": [
                "STATIC"
            ], 
            "name": "getScenarioDefinition", 
            "parameters": [
                {
                    "type": "String", 
                    "name": "scenarioId"
                }, 
                {
                    "type": "LIST", 
                    "name": "messages"
                }, 
                {
                    "type": "Boolean", 
                    "name": "useCache"
                }
            ], 
            "visibility": "PUBLIC", 
            "references": [], 
            "location": {
                "column": 33, 
                "line": 343
            }, 
            "returnType": "MatchScenario", 
            "type": null
        }, 
        {
            "modifiers": [
                "STATIC"
            ], 
            "name": "getScenarioForWrapper", 
            "parameters": [
                {
                    "type": "Wrapper", 
                    "name": "w"
                }
            ], 
            "visibility": "PUBLIC", 
            "references": [], 
            "location": {
                "column": 33, 
                "line": 408
            }, 
            "returnType": "MatchScenario", 
            "type": null
        }, 
        {
            "modifiers": [
                "STATIC"
            ], 
            "name": "getJavascriptBody", 
            "parameters": [
                {
                    "type": "MatchScenario", 
                    "name": "input"
                }
            ], 
            "visibility": "PUBLIC", 
            "references": [], 
            "location": {
                "column": 26, 
                "line": 599
            }, 
            "returnType": "String", 
            "type": null
        }
    ], 
    "innerClasses": [
        {
            "properties": [
                {
                    "modifiers": [], 
                    "name": "fieldLabelsMapping", 
                    "visibility": "PUBLIC", 
                    "references": [], 
                    "location": {
                        "column": 37, 
                        "line": 172
                    }, 
                    "type": "Map"
                }
            ], 
            "methods": [], 
            "innerClasses": [], 
            "variables": [
                {
                    "type": "MatchScenario", 
                    "modifiers": [], 
                    "references": [], 
                    "location": {
                        "column": 45, 
                        "line": 188
                    }, 
                    "name": "input"
                }
            ], 
            "constructors": [
                {
                    "modifiers": [], 
                    "name": "MatchWeighting", 
                    "parameters": [
                        {
                            "type": "MatchScenario", 
                            "name": "input"
                        }
                    ], 
                    "visibility": "PUBLIC", 
                    "references": [], 
                    "location": {
                        "column": 16, 
                        "line": 188
                    }, 
                    "type": null
                }, 
                {
                    "modifiers": [], 
                    "name": "MatchWeighting", 
                    "parameters": [], 
                    "visibility": "PUBLIC", 
                    "references": [], 
                    "location": {
                        "column": 16, 
                        "line": 195
                    }, 
                    "type": null
                }
            ], 
            "namespace": "ddcDet", 
            "name": "MatchWeighting", 
            "tableDeclaration": {
                "type": "MatchWeighting", 
                "modifiers": [], 
                "references": [], 
                "location": {
                    "column": 18, 
                    "line": 170
                }, 
                "name": "MatchWeighting"
            }, 
            "key": null, 
            "id": null, 
            "externalReferences": []
        }
    ], 
    "variables": [
        {
            "type": "ddcDet__Match_Scenario__c", 
            "modifiers": [], 
            "references": [], 
            "location": {
                "column": 44, 
                "line": 124
            }, 
            "name": "cObj"
        }, 
        {
            "type": "Object", 
            "modifiers": [], 
            "references": [], 
            "location": {
                "column": 37, 
                "line": 203
            }, 
            "name": "compareTo"
        }, 
        {
            "type": "MatchScenario", 
            "modifiers": [], 
            "references": [], 
            "location": {
                "column": 23, 
                "line": 205
            }, 
            "name": "msIn"
        }, 
        {
            "type": "Integer", 
            "modifiers": [], 
            "references": [], 
            "location": {
                "column": 17, 
                "line": 206
            }, 
            "name": "i"
        }, 
        {
            "type": "Integer", 
            "modifiers": [], 
            "references": [], 
            "location": {
                "column": 17, 
                "line": 207
            }, 
            "name": "j"
        }, 
        {
            "type": "String", 
            "modifiers": [], 
            "references": [], 
            "location": {
                "column": 51, 
                "line": 227
            }, 
            "name": "objName"
        }, 
        {
            "type": "LIST", 
            "modifiers": [], 
            "references": [], 
            "location": {
                "column": 80, 
                "line": 227
            }, 
            "name": "messages"
        }, 
        {
            "type": "MatchScenario", 
            "modifiers": [], 
            "references": [], 
            "location": {
                "column": 20, 
                "line": 228
            }, 
            "name": "result"
        }, 
        {
            "type": "String", 
            "modifiers": [], 
            "references": [], 
            "location": {
                "column": 13, 
                "line": 239
            }, 
            "name": "soql"
        }, 
        {
            "type": "Map", 
            "modifiers": [], 
            "references": [], 
            "location": {
                "column": 46, 
                "line": 243
            }, 
            "name": "fieldmap"
        }, 
        {
            "type": "SObjectField", 
            "modifiers": [], 
            "references": [], 
            "location": {
                "column": 41, 
                "line": 247
            }, 
            "name": "fName"
        }, 
        {
            "type": "ddcDet__Match_Scenario__c", 
            "modifiers": [], 
            "references": [], 
            "location": {
                "column": 35, 
                "line": 262
            }, 
            "name": "queryResult"
        }, 
        {
            "type": "String", 
            "modifiers": [], 
            "references": [], 
            "location": {
                "column": 82, 
                "line": 282
            }, 
            "name": "objName"
        }, 
        {
            "type": "LIST", 
            "modifiers": [], 
            "references": [], 
            "location": {
                "column": 111, 
                "line": 282
            }, 
            "name": "messages"
        }, 
        {
            "type": "Map", 
            "modifiers": [], 
            "references": [], 
            "location": {
                "column": 40, 
                "line": 286
            }, 
            "name": "result"
        }, 
        {
            "type": "String", 
            "modifiers": [], 
            "references": [], 
            "location": {
                "column": 16, 
                "line": 288
            }, 
            "name": "soql"
        }, 
        {
            "type": "Map", 
            "modifiers": [], 
            "references": [], 
            "location": {
                "column": 46, 
                "line": 292
            }, 
            "name": "fieldmap"
        }, 
        {
            "type": "SObjectField", 
            "modifiers": [], 
            "references": [], 
            "location": {
                "column": 41, 
                "line": 296
            }, 
            "name": "fName"
        }, 
        {
            "type": "LIST", 
            "modifiers": [], 
            "references": [], 
            "location": {
                "column": 41, 
                "line": 309
            }, 
            "name": "queryResult"
        }, 
        {
            "type": "ddcDet__Match_Scenario__c", 
            "modifiers": [], 
            "references": [], 
            "location": {
                "column": 43, 
                "line": 314
            }, 
            "name": "ms"
        }, 
        {
            "type": "String", 
            "modifiers": [], 
            "references": [], 
            "location": {
                "column": 62, 
                "line": 333
            }, 
            "name": "scenarioId"
        }, 
        {
            "type": "LIST", 
            "modifiers": [], 
            "references": [], 
            "location": {
                "column": 94, 
                "line": 333
            }, 
            "name": "messages"
        }, 
        {
            "type": "String", 
            "modifiers": [], 
            "references": [], 
            "location": {
                "column": 62, 
                "line": 343
            }, 
            "name": "scenarioId"
        }, 
        {
            "type": "LIST", 
            "modifiers": [], 
            "references": [], 
            "location": {
                "column": 94, 
                "line": 343
            }, 
            "name": "messages"
        }, 
        {
            "type": "Boolean", 
            "modifiers": [], 
            "references": [], 
            "location": {
                "column": 112, 
                "line": 343
            }, 
            "name": "useCache"
        }, 
        {
            "type": "MatchScenario", 
            "modifiers": [], 
            "references": [], 
            "location": {
                "column": 23, 
                "line": 344
            }, 
            "name": "result"
        }, 
        {
            "type": "String", 
            "modifiers": [], 
            "references": [], 
            "location": {
                "column": 20, 
                "line": 354
            }, 
            "name": "soql"
        }, 
        {
            "type": "Map", 
            "modifiers": [], 
            "references": [], 
            "location": {
                "column": 50, 
                "line": 357
            }, 
            "name": "fieldmap"
        }, 
        {
            "type": "SObjectField", 
            "modifiers": [], 
            "references": [], 
            "location": {
                "column": 45, 
                "line": 363
            }, 
            "name": "fName"
        }, 
        {
            "type": "ddcDet__Match_Scenario__c", 
            "modifiers": [], 
            "references": [], 
            "location": {
                "column": 39, 
                "line": 376
            }, 
            "name": "queryResult"
        }, 
        {
            "type": "Wrapper", 
            "modifiers": [], 
            "references": [], 
            "location": {
                "column": 63, 
                "line": 408
            }, 
            "name": "w"
        }, 
        {
            "type": "MatchScenario", 
            "modifiers": [], 
            "references": [], 
            "location": {
                "column": 23, 
                "line": 410
            }, 
            "name": "result"
        }, 
        {
            "type": "SObject", 
            "modifiers": [], 
            "references": [], 
            "location": {
                "column": 17, 
                "line": 416
            }, 
            "name": "wrappedObj"
        }, 
        {
            "type": "SObjectType", 
            "modifiers": [], 
            "references": [], 
            "location": {
                "column": 28, 
                "line": 426
            }, 
            "name": "stype"
        }, 
        {
            "type": "Map", 
            "modifiers": [], 
            "references": [], 
            "location": {
                "column": 40, 
                "line": 428
            }, 
            "name": "scenarios"
        }, 
        {
            "type": "LIST", 
            "modifiers": [], 
            "references": [], 
            "location": {
                "column": 33, 
                "line": 445
            }, 
            "name": "msList"
        }, 
        {
            "type": "Map", 
            "modifiers": [], 
            "references": [], 
            "location": {
                "column": 29, 
                "line": 448
            }, 
            "name": "rulesMap"
        }, 
        {
            "type": "ddcDet__Match_Scenario__c", 
            "modifiers": [], 
            "references": [], 
            "location": {
                "column": 32, 
                "line": 450
            }, 
            "name": "ms"
        }, 
        {
            "type": "LIST", 
            "modifiers": [], 
            "references": [], 
            "location": {
                "column": 26, 
                "line": 460
            }, 
            "name": "parts"
        }, 
        {
            "type": "LIST", 
            "modifiers": [], 
            "references": [], 
            "location": {
                "column": 29, 
                "line": 471
            }, 
            "name": "parts"
        }, 
        {
            "type": "LIST", 
            "modifiers": [], 
            "references": [], 
            "location": {
                "column": 26, 
                "line": 482
            }, 
            "name": "parts"
        }, 
        {
            "type": "LIST", 
            "modifiers": [], 
            "references": [], 
            "location": {
                "column": 26, 
                "line": 493
            }, 
            "name": "parts"
        }, 
        {
            "type": "LIST", 
            "modifiers": [], 
            "references": [], 
            "location": {
                "column": 26, 
                "line": 504
            }, 
            "name": "parts"
        }, 
        {
            "type": "Boolean", 
            "modifiers": [], 
            "references": [], 
            "location": {
                "column": 18, 
                "line": 545
            }, 
            "name": "isThisRule"
        }, 
        {
            "type": "String", 
            "modifiers": [], 
            "references": [], 
            "location": {
                "column": 23, 
                "line": 549
            }, 
            "name": "f"
        }, 
        {
            "type": "Object", 
            "modifiers": [], 
            "references": [], 
            "location": {
                "column": 20, 
                "line": 551
            }, 
            "name": "val"
        }, 
        {
            "type": "MatchScenario", 
            "modifiers": [], 
            "references": [], 
            "location": {
                "column": 58, 
                "line": 599
            }, 
            "name": "input"
        }, 
        {
            "type": "String", 
            "modifiers": [], 
            "references": [], 
            "location": {
                "column": 16, 
                "line": 600
            }, 
            "name": "result"
        }
    ], 
    "constructors": [
        {
            "modifiers": [], 
            "name": "MatchScenario", 
            "parameters": [
                {
                    "type": "ddcDet__Match_Scenario__c", 
                    "name": "cObj"
                }
            ], 
            "visibility": "PUBLIC", 
            "references": [], 
            "location": {
                "column": 12, 
                "line": 124
            }, 
            "type": null
        }, 
        {
            "modifiers": [], 
            "name": "MatchScenario", 
            "parameters": [], 
            "visibility": "PUBLIC", 
            "references": [], 
            "location": {
                "column": 12, 
                "line": 158
            }, 
            "type": null
        }
    ], 
    "namespace": "ddcDet", 
    "name": "MatchScenario", 
    "tableDeclaration": {
        "type": "MatchScenario", 
        "modifiers": [], 
        "references": [], 
        "location": {
            "column": 27, 
            "line": 1
        }, 
        "name": "MatchScenario"
    }, 
    "key": "01pd0000002cimM", 
    "id": "01pd0000002cimM", 
    "externalReferences": []
}