{
    "properties": [
        {
            "modifiers": [], 
            "name": "selectedObject", 
            "visibility": "PUBLIC", 
            "references": [], 
            "location": {
                "column": 19, 
                "line": 5
            }, 
            "type": "String"
        }, 
        {
            "modifiers": [], 
            "name": "batchSoqlString", 
            "visibility": "PUBLIC", 
            "references": [], 
            "location": {
                "column": 19, 
                "line": 7
            }, 
            "type": "String"
        }, 
        {
            "modifiers": [], 
            "name": "hasAccess", 
            "visibility": "PUBLIC", 
            "references": [], 
            "location": {
                "column": 20, 
                "line": 10
            }, 
            "type": "Boolean"
        }, 
        {
            "modifiers": [], 
            "name": "hasScenarios", 
            "visibility": "PUBLIC", 
            "references": [], 
            "location": {
                "column": 20, 
                "line": 11
            }, 
            "type": "Boolean"
        }, 
        {
            "modifiers": [], 
            "name": "hasSettings", 
            "visibility": "PUBLIC", 
            "references": [], 
            "location": {
                "column": 20, 
                "line": 12
            }, 
            "type": "Boolean"
        }, 
        {
            "modifiers": [], 
            "name": "hasMappings", 
            "visibility": "PUBLIC", 
            "references": [], 
            "location": {
                "column": 20, 
                "line": 13
            }, 
            "type": "Boolean"
        }, 
        {
            "modifiers": [], 
            "name": "hasMatcherConfig", 
            "visibility": "PUBLIC", 
            "references": [], 
            "location": {
                "column": 20, 
                "line": 14
            }, 
            "type": "Boolean"
        }, 
        {
            "modifiers": [], 
            "name": "showNewButton", 
            "visibility": "PUBLIC", 
            "references": [], 
            "location": {
                "column": 20, 
                "line": 15
            }, 
            "type": "Boolean"
        }, 
        {
            "modifiers": [], 
            "name": "messages", 
            "visibility": "PRIVATE", 
            "references": [], 
            "location": {
                "column": 43, 
                "line": 18
            }, 
            "type": "LIST"
        }, 
        {
            "modifiers": [], 
            "name": "runtimeSetting", 
            "visibility": "PRIVATE", 
            "references": [], 
            "location": {
                "column": 42, 
                "line": 21
            }, 
            "type": "ddcDet__RuntimeSettings__c"
        }, 
        {
            "modifiers": [
                "STATIC"
            ], 
            "name": "selectedScenario", 
            "visibility": "PUBLIC", 
            "references": [], 
            "location": {
                "column": 26, 
                "line": 4
            }, 
            "type": "String"
        }, 
        {
            "modifiers": [
                "STATIC"
            ], 
            "name": "scenarioWrapper", 
            "visibility": "PUBLIC", 
            "references": [], 
            "location": {
                "column": 33, 
                "line": 6
            }, 
            "type": "MatchScenario"
        }
    ], 
    "methods": [
        {
            "modifiers": [], 
            "name": "reRender", 
            "parameters": [], 
            "visibility": "PUBLIC", 
            "references": [], 
            "location": {
                "column": 26, 
                "line": 29
            }, 
            "returnType": "PageReference", 
            "type": null
        }, 
        {
            "modifiers": [], 
            "name": "getSobjects", 
            "parameters": [], 
            "visibility": "PUBLIC", 
            "references": [], 
            "location": {
                "column": 31, 
                "line": 51
            }, 
            "returnType": "LIST", 
            "type": null
        }, 
        {
            "modifiers": [], 
            "name": "getScenarios", 
            "parameters": [], 
            "visibility": "PUBLIC", 
            "references": [], 
            "location": {
                "column": 31, 
                "line": 69
            }, 
            "returnType": "LIST", 
            "type": null
        }, 
        {
            "modifiers": [], 
            "name": "getSettings", 
            "parameters": [], 
            "visibility": "PUBLIC", 
            "references": [], 
            "location": {
                "column": 31, 
                "line": 105
            }, 
            "returnType": "ddcDet__RuntimeSettings__c", 
            "type": null
        }, 
        {
            "modifiers": [], 
            "name": "getWeightings", 
            "parameters": [], 
            "visibility": "PUBLIC", 
            "references": [], 
            "location": {
                "column": 44, 
                "line": 131
            }, 
            "returnType": "Map", 
            "type": null
        }, 
        {
            "modifiers": [], 
            "name": "getMappings", 
            "parameters": [], 
            "visibility": "PUBLIC", 
            "references": [], 
            "location": {
                "column": 37, 
                "line": 155
            }, 
            "returnType": "Map", 
            "type": null
        }, 
        {
            "modifiers": [], 
            "name": "getAutocompleteFields", 
            "parameters": [], 
            "visibility": "PUBLIC", 
            "references": [], 
            "location": {
                "column": 32, 
                "line": 169
            }, 
            "returnType": "Map", 
            "type": null
        }, 
        {
            "modifiers": [], 
            "name": "getScenarioJavascript", 
            "parameters": [], 
            "visibility": "PUBLIC", 
            "references": [], 
            "location": {
                "column": 19, 
                "line": 223
            }, 
            "returnType": "String", 
            "type": null
        }, 
        {
            "modifiers": [], 
            "name": "newScenario", 
            "parameters": [], 
            "visibility": "PUBLIC", 
            "references": [], 
            "location": {
                "column": 26, 
                "line": 306
            }, 
            "returnType": "PageReference", 
            "type": null
        }, 
        {
            "modifiers": [
                "STATIC"
            ], 
            "name": "remoteSave", 
            "parameters": [
                {
                    "type": "String", 
                    "name": "sobj"
                }, 
                {
                    "type": "String", 
                    "name": "field"
                }, 
                {
                    "type": "Object", 
                    "name": "val"
                }
            ], 
            "visibility": "PUBLIC", 
            "references": [], 
            "location": {
                "column": 33, 
                "line": 234
            }, 
            "returnType": "PageReference", 
            "type": null
        }, 
        {
            "modifiers": [
                "STATIC"
            ], 
            "name": "remoteSaveScenario", 
            "parameters": [
                {
                    "type": "String", 
                    "name": "field"
                }, 
                {
                    "type": "Object", 
                    "name": "fval"
                }, 
                {
                    "type": "Object", 
                    "name": "scenarioId"
                }
            ], 
            "visibility": "PUBLIC", 
            "references": [], 
            "location": {
                "column": 27, 
                "line": 252
            }, 
            "returnType": "Boolean", 
            "type": null
        }, 
        {
            "modifiers": [
                "STATIC"
            ], 
            "name": "remoteSaveToMapping", 
            "parameters": [
                {
                    "type": "MappedField", 
                    "name": "mf"
                }, 
                {
                    "type": "String", 
                    "name": "objName"
                }
            ], 
            "visibility": "PUBLIC", 
            "references": [], 
            "location": {
                "column": 27, 
                "line": 275
            }, 
            "returnType": "Boolean", 
            "type": null
        }, 
        {
            "modifiers": [
                "STATIC"
            ], 
            "name": "remoteSaveSetting", 
            "parameters": [
                {
                    "type": "String", 
                    "name": "field"
                }, 
                {
                    "type": "Object", 
                    "name": "checkval"
                }, 
                {
                    "type": "Object", 
                    "name": "matchScenarioId"
                }
            ], 
            "visibility": "PUBLIC", 
            "references": [], 
            "location": {
                "column": 27, 
                "line": 289
            }, 
            "returnType": "Boolean", 
            "type": null
        }
    ], 
    "innerClasses": [], 
    "variables": [
        {
            "type": "Boolean", 
            "modifiers": [], 
            "references": [], 
            "location": {
                "column": 17, 
                "line": 41
            }, 
            "name": "hasMessage"
        }, 
        {
            "type": "Message", 
            "modifiers": [], 
            "references": [], 
            "location": {
                "column": 32, 
                "line": 42
            }, 
            "name": "message"
        }, 
        {
            "type": "LIST", 
            "modifiers": [], 
            "references": [], 
            "location": {
                "column": 28, 
                "line": 52
            }, 
            "name": "options"
        }, 
        {
            "type": "LIST", 
            "modifiers": [], 
            "references": [], 
            "location": {
                "column": 31, 
                "line": 55
            }, 
            "name": "allScenarios"
        }, 
        {
            "type": "AggregateResult", 
            "modifiers": [], 
            "references": [], 
            "location": {
                "column": 30, 
                "line": 62
            }, 
            "name": "ar"
        }, 
        {
            "type": "LIST", 
            "modifiers": [], 
            "references": [], 
            "location": {
                "column": 28, 
                "line": 70
            }, 
            "name": "result"
        }, 
        {
            "type": "Map", 
            "modifiers": [], 
            "references": [], 
            "location": {
                "column": 44, 
                "line": 77
            }, 
            "name": "scenarios"
        }, 
        {
            "type": "String", 
            "modifiers": [], 
            "references": [], 
            "location": {
                "column": 28, 
                "line": 81
            }, 
            "name": "s"
        }, 
        {
            "type": "ddcDet__RuntimeSettings__c", 
            "modifiers": [], 
            "references": [], 
            "location": {
                "column": 28, 
                "line": 108
            }, 
            "name": "result"
        }, 
        {
            "type": "Map", 
            "modifiers": [], 
            "references": [], 
            "location": {
                "column": 41, 
                "line": 132
            }, 
            "name": "result"
        }, 
        {
            "type": "LIST", 
            "modifiers": [], 
            "references": [], 
            "location": {
                "column": 32, 
                "line": 137
            }, 
            "name": "intList"
        }, 
        {
            "type": "Integer", 
            "modifiers": [], 
            "references": [], 
            "location": {
                "column": 25, 
                "line": 138
            }, 
            "name": "i"
        }, 
        {
            "type": "MatchWeighting", 
            "modifiers": [], 
            "references": [], 
            "location": {
                "column": 42, 
                "line": 141
            }, 
            "name": "weightingDefinition"
        }, 
        {
            "type": "Map", 
            "modifiers": [], 
            "references": [], 
            "location": {
                "column": 33, 
                "line": 142
            }, 
            "name": "labelsMapping"
        }, 
        {
            "type": "String", 
            "modifiers": [], 
            "references": [], 
            "location": {
                "column": 24, 
                "line": 143
            }, 
            "name": "label"
        }, 
        {
            "type": "Map", 
            "modifiers": [], 
            "references": [], 
            "location": {
                "column": 34, 
                "line": 158
            }, 
            "name": "result"
        }, 
        {
            "type": "Map", 
            "modifiers": [], 
            "references": [], 
            "location": {
                "column": 26, 
                "line": 170
            }, 
            "name": "result"
        }, 
        {
            "type": "Map", 
            "modifiers": [], 
            "references": [], 
            "location": {
                "column": 33, 
                "line": 174
            }, 
            "name": "fmap"
        }, 
        {
            "type": "SObjectField", 
            "modifiers": [], 
            "references": [], 
            "location": {
                "column": 24, 
                "line": 176
            }, 
            "name": "field"
        }, 
        {
            "type": "String", 
            "modifiers": [], 
            "references": [], 
            "location": {
                "column": 28, 
                "line": 184
            }, 
            "name": "fieldName"
        }, 
        {
            "type": "String", 
            "modifiers": [], 
            "references": [], 
            "location": {
                "column": 28, 
                "line": 185
            }, 
            "name": "fieldType"
        }, 
        {
            "type": "String", 
            "modifiers": [], 
            "references": [], 
            "location": {
                "column": 28, 
                "line": 186
            }, 
            "name": "fieldsForType"
        }, 
        {
            "type": "DescribeSObjectResult", 
            "modifiers": [], 
            "references": [], 
            "location": {
                "column": 38, 
                "line": 307
            }, 
            "name": "R"
        }, 
        {
            "type": "String", 
            "modifiers": [], 
            "references": [], 
            "location": {
                "column": 51, 
                "line": 234
            }, 
            "name": "sobj"
        }, 
        {
            "type": "String", 
            "modifiers": [], 
            "references": [], 
            "location": {
                "column": 64, 
                "line": 234
            }, 
            "name": "field"
        }, 
        {
            "type": "Object", 
            "modifiers": [], 
            "references": [], 
            "location": {
                "column": 78, 
                "line": 234
            }, 
            "name": "val"
        }, 
        {
            "type": "Message", 
            "modifiers": [], 
            "references": [], 
            "location": {
                "column": 31, 
                "line": 240
            }, 
            "name": "pMessage"
        }, 
        {
            "type": "String", 
            "modifiers": [], 
            "references": [], 
            "location": {
                "column": 53, 
                "line": 252
            }, 
            "name": "field"
        }, 
        {
            "type": "Object", 
            "modifiers": [], 
            "references": [], 
            "location": {
                "column": 67, 
                "line": 252
            }, 
            "name": "fval"
        }, 
        {
            "type": "Object", 
            "modifiers": [], 
            "references": [], 
            "location": {
                "column": 80, 
                "line": 252
            }, 
            "name": "scenarioId"
        }, 
        {
            "type": "Boolean", 
            "modifiers": [], 
            "references": [], 
            "location": {
                "column": 14, 
                "line": 253
            }, 
            "name": "result"
        }, 
        {
            "type": "MatchScenario", 
            "modifiers": [], 
            "references": [], 
            "location": {
                "column": 20, 
                "line": 258
            }, 
            "name": "ms"
        }, 
        {
            "type": "MappedField", 
            "modifiers": [], 
            "references": [], 
            "location": {
                "column": 59, 
                "line": 275
            }, 
            "name": "mf"
        }, 
        {
            "type": "String", 
            "modifiers": [], 
            "references": [], 
            "location": {
                "column": 70, 
                "line": 275
            }, 
            "name": "objName"
        }, 
        {
            "type": "Boolean", 
            "modifiers": [], 
            "references": [], 
            "location": {
                "column": 14, 
                "line": 276
            }, 
            "name": "result"
        }, 
        {
            "type": "String", 
            "modifiers": [], 
            "references": [], 
            "location": {
                "column": 52, 
                "line": 289
            }, 
            "name": "field"
        }, 
        {
            "type": "Object", 
            "modifiers": [], 
            "references": [], 
            "location": {
                "column": 66, 
                "line": 289
            }, 
            "name": "checkval"
        }, 
        {
            "type": "Object", 
            "modifiers": [], 
            "references": [], 
            "location": {
                "column": 83, 
                "line": 289
            }, 
            "name": "matchScenarioId"
        }, 
        {
            "type": "Boolean", 
            "modifiers": [], 
            "references": [], 
            "location": {
                "column": 17, 
                "line": 290
            }, 
            "name": "result"
        }, 
        {
            "type": "RuntimeSetting", 
            "modifiers": [], 
            "references": [], 
            "location": {
                "column": 24, 
                "line": 298
            }, 
            "name": "thisSetting"
        }
    ], 
    "constructors": [
        {
            "modifiers": [], 
            "name": "DETConfigController", 
            "parameters": [], 
            "visibility": "PUBLIC", 
            "references": [], 
            "location": {
                "column": 12, 
                "line": 23
            }, 
            "type": null
        }
    ], 
    "namespace": "ddcDet", 
    "name": "DETConfigController", 
    "tableDeclaration": {
        "type": "DETConfigController", 
        "modifiers": [], 
        "references": [], 
        "location": {
            "column": 27, 
            "line": 1
        }, 
        "name": "DETConfigController"
    }, 
    "key": "01pd0000002ciBW", 
    "id": "01pd0000002ciBW", 
    "externalReferences": []
}