{
    "externalReferences": [], 
    "innerClasses": [], 
    "variables": [
        {
            "references": [], 
            "modifiers": [], 
            "type": "DDCObject", 
            "name": "value", 
            "location": {
                "column": 32, 
                "line": 21
            }
        }
    ], 
    "constructors": [], 
    "namespace": "ddcDet", 
    "id": "01pd0000002ag5t", 
    "tableDeclaration": {
        "references": [], 
        "modifiers": [], 
        "type": "Wrapper", 
        "name": "Wrapper", 
        "location": {
            "column": 18, 
            "line": 6
        }
    }, 
    "methods": [
        {
            "modifiers": [], 
            "name": "getSObject", 
            "parameters": [], 
            "visibility": "GLOBAL", 
            "references": [], 
            "location": {
                "column": 13, 
                "line": 9
            }, 
            "returnType": "SObject", 
            "type": null
        }, 
        {
            "modifiers": [], 
            "name": "getType", 
            "parameters": [], 
            "visibility": "GLOBAL", 
            "references": [], 
            "location": {
                "column": 13, 
                "line": 12
            }, 
            "returnType": "DDCType", 
            "type": null
        }, 
        {
            "modifiers": [], 
            "name": "getScenario", 
            "parameters": [], 
            "visibility": "GLOBAL", 
            "references": [], 
            "location": {
                "column": 19, 
                "line": 15
            }, 
            "returnType": "MatchScenario", 
            "type": null
        }, 
        {
            "modifiers": [], 
            "name": "getDdcMatch", 
            "parameters": [], 
            "visibility": "GLOBAL", 
            "references": [], 
            "location": {
                "column": 15, 
                "line": 18
            }, 
            "returnType": "DDCObject", 
            "type": null
        }, 
        {
            "modifiers": [], 
            "name": "setDdcMatch", 
            "parameters": [
                {
                    "type": "DDCObject", 
                    "name": "value"
                }
            ], 
            "visibility": "GLOBAL", 
            "references": [], 
            "location": {
                "column": 10, 
                "line": 21
            }, 
            "returnType": "void", 
            "type": null
        }
    ], 
    "key": "01pd0000002ag5t", 
    "properties": [], 
    "name": "Wrapper"
}